{
	"auth": {
		"todoe82b4880": {
			"service": "Cognito",
			"providerPlugin": "awscloudformation",
			"dependsOn": []
		}
	},
	"storage": {
		"uploads": {
			"service": "S3",
			"providerPlugin": "awscloudformation"
		}
	},
	"api": {
		"todo": {
			"service": "AppSync",
			"providerPlugin": "awscloudformation",
			"output": {
				"authConfig": {
					"additionalAuthenticationProviders": [],
					"defaultAuthentication": {
						"authenticationType": "API_KEY",
						"apiKeyConfig": {
							"description": "demo",
							"apiKeyExpirationDays": 7
						}
					}
				}
			}
		}
	}
}