{
    "dev": {
        "awscloudformation": {
            "AuthRoleName": "amplify-todo-dev-201913-authRole",
            "UnauthRoleArn": "arn:aws:iam::955104543409:role/amplify-todo-dev-201913-unauthRole",
            "AuthRoleArn": "arn:aws:iam::955104543409:role/amplify-todo-dev-201913-authRole",
            "Region": "us-east-1",
            "DeploymentBucketName": "amplify-todo-dev-201913-deployment",
            "UnauthRoleName": "amplify-todo-dev-201913-unauthRole",
            "StackName": "amplify-todo-dev-201913",
            "StackId": "arn:aws:cloudformation:us-east-1:955104543409:stack/amplify-todo-dev-201913/d023a320-73b6-11ea-a42a-0ed2247e0ea9",
            "AmplifyAppId": "d3foif8x2geqgc"
        }
    }
}